What does the following code print ?

Content of requested file :

<?php

function test() {
    $var="Hello world";
    include('file.php');
}

test();
?>


Content of file "file.php"

<?php

echo $var;

?>