What is the output of the following code ?


<?php

class className {

    public $var=NULL;
?>

<?php
    public function __construct($var) {
        $this->var;
    }   
}

$obj=new className("Hello world");
echo $obj->var;
?>