What is the output of the following code ?

<?php

class City {

    static public $name="Paris":
	
    public function getcity() {
        return $this->name;
    }
}

City::getcity();
?>
