What is the output of the following code ?


<?php
$dir = "/tmp";

if (is_dir($dir)) {
    if ($handle = opendir($dir)) {
        $directory = readdir($handle);
        closedir($handle);
    }
}

echo (gettype($directory));
?>
