What does the following code print ?


<?php
function filter($var) {
    if($var%2==0)
        return true;
    else
       return false;
}

$array1 = array("a"=>1, "b"=>2, "c"=>3, "d"=>4, "e"=>5);


$result=array_filter($array1,'filter');

echo count($result);

?>