What does the following code sprint ?

Content of file "file.txt" :
hello world

Content of requested file :
<?php
$file=fopen('file.txt','r');

for($i=0;$i<2;$i++) {
    fseek($file,$i+3);
    echo ftell($file)." ";
}
?>