What does the following code print ?


Content of file "index.php" :

<?php
if(include('file.php')=="OK") {
    echo "ok";
} else {
    echo "nok";
}
?>

Content of file "file.php" :


<?php
return "OK";

?>