What is the output of the following code ?

<?php 

$data="un dos tres";
$masque="#([a-z]+)s(?:[a-z]+)s([a-z]+)#";

if(preg_match($masque,$data,$matches)) {
    echo $matches[2];
}else {
    echo "false";
}
?>
