What does the following code print ?


<?php

const name="nico";

$persons=['emilie'=>['age'=>26,'sex'=>'female'],
		      'nico'=>['age'=>29,'sex'=>'male'],
		      'bob'=>['age'=>45,'sex'=>'male'],
		     ];



echo $persons[name]['age'];
?>