What does the following code print ?

Content of file "file.txt":
hello world 
It's a raining day

Content of requested file :

<?php
$file=fopen('file.txt','r');
for($i=0;$i<3;$i++)
    fseek($file,4);

echo fgetc($file);
?>
