What is the output of the following code ?

<?php
class classname {

    public $var=1;
        
    public function classname() {
    	$this->var++;
    }
}

$obj=new classname();
echo $obj->var;
?>