What does the following code print ?

Content of requested file :

<?php
$return=include('file.php');

echo $return." ".func2()."$var2";
?>

Content of file "file.php" :

<?php

function func1() {
    return "Func1";
}

$var1="hello ";

return "ok";

function func2() {
    return "func2 ";
}

$var2="world";

?>