array(4) { [1]=> string(1) "a" ["value"]=> string(1) "a" [0]=> int(0) ["key"]=> int(0) } 
array(4) { [1]=> string(1) "b" ["value"]=> string(1) "b" [0]=> int(1) ["key"]=> int(1) } 
array(4) { [1]=> string(1) "c" ["value"]=> string(1) "c" [0]=> int(2) ["key"]=> int(2) } 
array(4) { [1]=> string(1) "d" ["value"]=> string(1) "d" [0]=> int(3) ["key"]=> int(3) } 