What does the following code print ?

<?php


function test($name,$test=0,&$firstname="Barack") {
    if($test==1)
        $firstname="Simon";
    return $firstname;
}

echo test('Obama',1)." ";
echo test('Obama');

?>
