What does the following code print ?


Table city :


!#table#!
!#tr#!!#td#!  id !#/td#!!#td#! name      !#/td#!!#td#! people !#/td#!!#/tr#!
!#tr#!!#td#!  1       !#/td#!!#td#! New-york  !#/td#!!#td#! 1000  !#/td#!!#/tr#!
!#tr#!!#td#!  2       !#/td#!!#td#! Paris  !#/td#!!#td#! 500  !#/td#!!#/tr#!
!#/table#!

<?php

$dsn="mysql:host=localhost;dbname=test";

$pdo=new PDO($dsn,'user','password');
$pdo->setAttribute(PDO::ATTR_ERRMODE,PDO::ERRMODE_EXCEPTION);

$stmt=$pdo->query("SELECT  * FROM city WHERE id='1'");

var_dump($stmt->fetchColumn(2));
?>